﻿  lab9.cpp
D:\Evolution\sp\lab9\lab9\lab9.cpp(142,6): warning C4101: hdc: неиспользованная локальная переменная
D:\Evolution\sp\lab9\lab9\lab9.cpp(141,14): warning C4101: ps: неиспользованная локальная переменная
D:\Evolution\sp\lab9\lab9\lab9.cpp(140,6): warning C4101: wmId: неиспользованная локальная переменная
  lab9.vcxproj -> D:\Evolution\sp\lab9\Debug\lab9.exe
