^D:\EVOLUTION\SP\LAB10.1\LAB10.1\DEBUG\LAB10.1.OBJ|D:\EVOLUTION\SP\LAB10.1\LAB10.1\DEBUG\LAB10.1.RES
D:\EVOLUTION\SP\LAB10.1\DEBUG\LAB10.1.EXE
D:\EVOLUTION\SP\LAB10.1\DEBUG\LAB10.1.ILK
D:\EVOLUTION\SP\LAB10.1\DEBUG\LAB10.1.PDB
